\boolfalse {citerequest}\boolfalse {citetracker}\boolfalse {pagetracker}\boolfalse {backtracker}\relax 
\defcounter {refsection}{0}\relax 
\select@language {english}
\defcounter {refsection}{0}\relax 
\beamer@sectionintoc {1}{Introduction}{2}{0}{1}
\defcounter {refsection}{0}\relax 
\beamer@sectionintoc {2}{Outline}{16}{0}{2}
\defcounter {refsection}{0}\relax 
\beamer@sectionintoc {3}{Contribution}{20}{0}{3}
\defcounter {refsection}{0}\relax 
\beamer@sectionintoc {4}{Evaluation}{34}{0}{4}
\defcounter {refsection}{0}\relax 
\beamer@sectionintoc {5}{Conclusion}{41}{0}{5}
